[
  {
    "id": 0,
    "firstName": "FirstName1",
    "lastName": "Name"
  },
  {
    "id": 1,
    "firstName": "FirstName2",
    "lastName": "Name"
  },
  {
    "id": 2,
    "firstName": "FirstName3",
    "lastName": "Name"
  },
  {
    "id": 3,
    "firstName": "FirstName4",
    "lastName": "Name"
  },
  {
    "id": 4,
    "firstName": "FirstName5",
    "lastName": "Name"
  },
  {
    "id": 5,
    "firstName": "FirstName6",
    "lastName": "Name"
  }
]
